<svg width="14" height="10" viewBox="0 0 14 10" fill="none" xmlns="http://www.w3.org/2000/svg">
    <path d="M5.44444 9.66664H8.55556V8.11109H5.44444V9.66664ZM0 0.333313V1.88887H14V0.333313H0ZM2.33333 5.77776H11.6667V4.2222H2.33333V5.77776Z"
          fill="#1967D2"/>
</svg>
